simulation/qsim/tarefa2.msim.vcd
$comment
	File created using the following command:
		vcd file tarefa2.msim.vcd -direction
$end
$date
	Mon Mar 12 17:22:23 2018
$end
$version
	ModelSim Version 10.5b
$end
$timescale
	1ps
$end

$scope module tarefa2_vhd_vec_tst $end
$var wire 1 ! A $end
$var wire 1 " B $end
$var wire 1 # C $end
$var wire 1 $ D $end
$var wire 1 % E $end
$var wire 1 & F $end

$scope module i1 $end
$var wire 1 ' gnd $end
$var wire 1 ( vcc $end
$var wire 1 ) unknown $end
$var wire 1 * devoe $end
$var wire 1 + devclrn $end
$var wire 1 , devpor $end
$var wire 1 - ww_devoe $end
$var wire 1 . ww_devclrn $end
$var wire 1 / ww_devpor $end
$var wire 1 0 ww_F $end
$var wire 1 1 ww_A $end
$var wire 1 2 ww_B $end
$var wire 1 3 ww_C $end
$var wire 1 4 ww_E $end
$var wire 1 5 ww_D $end
$var wire 1 6 \~QUARTUS_CREATED_GND~I_combout\ $end
$var wire 1 7 \C~input_o\ $end
$var wire 1 8 \A~input_o\ $end
$var wire 1 9 \E~input_o\ $end
$var wire 1 : \D~input_o\ $end
$var wire 1 ; \B~input_o\ $end
$var wire 1 < \or~0_combout\ $end
$var wire 1 = \ALT_INV_C~input_o\ $end
$var wire 1 > \ALT_INV_D~input_o\ $end
$var wire 1 ? \ALT_INV_E~input_o\ $end
$var wire 1 @ \ALT_INV_B~input_o\ $end
$var wire 1 A \ALT_INV_A~input_o\ $end
$var wire 1 B \ALT_INV_or~0_combout\ $end
$upscope $end
$upscope $end
$enddefinitions $end
#0
$dumpvars
0!
0"
0#
0$
0%
1&
0'
1(
x)
1*
1+
1,
1-
1.
1/
10
01
02
03
04
05
x6
07
08
09
0:
0;
0<
1=
1>
1?
1@
1A
1B
$end
#25000
1%
14
19
0?
1<
0B
00
0&
#50000
0%
1$
04
15
1:
09
1?
0>
0<
1B
10
1&
#75000
1%
14
19
0?
1<
0B
00
0&
#100000
0%
0$
1#
04
05
13
17
0:
09
1?
1>
0=
#125000
1%
14
19
0?
0<
1B
10
1&
#150000
0%
1$
04
15
1:
09
1?
0>
1<
0B
00
0&
#175000
1%
14
19
0?
#200000
0%
0$
0#
1"
04
05
03
12
1;
07
0:
09
1?
1>
1=
0@
0<
1B
10
1&
#225000
1%
14
19
0?
1<
0B
00
0&
#250000
0%
1$
04
15
1:
09
1?
0>
#275000
1%
14
19
0?
#300000
0%
0$
1#
04
05
13
17
0:
09
1?
1>
0=
#325000
1%
14
19
0?
0<
1B
10
1&
#350000
0%
1$
04
15
1:
09
1?
0>
1<
0B
00
0&
#375000
1%
14
19
0?
0<
1B
10
1&
#400000
0%
0$
0#
0"
1!
04
05
03
02
11
18
0;
07
0:
09
1?
1>
1=
1@
0A
1<
0B
00
0&
#425000
1%
14
19
0?
#450000
0%
1$
04
15
1:
09
1?
0>
0<
1B
10
1&
#475000
1%
14
19
0?
1<
0B
00
0&
#500000
0%
0$
1#
04
05
13
17
0:
09
1?
1>
0=
#525000
1%
14
19
0?
0<
1B
10
1&
#550000
0%
1$
04
15
1:
09
1?
0>
1<
0B
00
0&
#575000
1%
14
19
0?
#600000
0%
0$
0#
1"
04
05
03
12
1;
07
0:
09
1?
1>
1=
0@
0<
1B
10
1&
#625000
1%
14
19
0?
1<
0B
00
0&
#650000
0%
1$
04
15
1:
09
1?
0>
#675000
1%
14
19
0?
#700000
0%
0$
1#
04
05
13
17
0:
09
1?
1>
0=
#725000
1%
14
19
0?
0<
1B
10
1&
#750000
0%
1$
04
15
1:
09
1?
0>
1<
0B
00
0&
#775000
1%
14
19
0?
0<
1B
10
1&
